…
    df2 = read.table('Dados\\Notas.txt', header=T)

    #install.packages('readxl')
    #install.packages('janitor')
    library(readxl)
    library(janitor)

    milho = read_excel('Dados\\milho_br.xlsx', sheet=3, skip=4)
    colnames(milho) = c('Nível',    'Cód.', 'Município', 
                        'Total', 'Unidade de Medida')
    clean_names(milho)

    ## # A tibble: 5,436 x 5
    ##    nivel cod     municipio                  total unidade_de_medida
    ##    <chr> <chr>   <chr>                      <chr> <chr>            
    ##  1 MU    1100015 Alta Floresta D'Oeste (RO) 6728  Hectares         
    ##  2 MU    1100023 Ariquemes (RO)             1400  Hectares         
    ##  3 MU    1100031 Cabixi (RO)                20020 Hectares         
    ##  4 MU    1100049 Cacoal (RO)                2139  Hectares         
    ##  5 MU    1100056 Cerejeiras (RO)            30050 Hectares         
    ##  6 MU    1100064 Colorado do Oeste (RO)     1550  Hectares         
    ##  7 MU    1100072 Corumbiara (RO)            25090 Hectares         
    ##  8 MU    1100080 Costa Marques (RO)         120   Hectares         
    ##  9 MU    1100098 Espigão D'Oeste (RO)       2284  Hectares         
    ## 10 MU    1100106 Guajará-Mirim (RO)         45    Hectares         
    ## # ... with 5,426 more rows
…
    media = tb1$funcoes[[1]]
    media(c(1,2,3))

    ## [1] 2

    df = iris
    tb2 = as_tibble(df)
    tb2

    ## # A tibble: 150 x 5
    ##    Sepal.Length Sepal.Width Petal.Length Petal.Width Species
    ##           <dbl>       <dbl>        <dbl>       <dbl> <fct>  
    ##  1          5.1         3.5          1.4         0.2 setosa 
    ##  2          4.9         3            1.4         0.2 setosa 
    ##  3          4.7         3.2          1.3         0.2 setosa 
    ##  4          4.6         3.1          1.5         0.2 setosa 
    ##  5          5           3.6          1.4         0.2 setosa 
    ##  6          5.4         3.9          1.7         0.4 setosa 
    ##  7          4.6         3.4          1.4         0.3 setosa 
    ##  8          5           3.4          1.5         0.2 setosa 
    ##  9          4.4         2.9          1.4         0.2 setosa 
    ## 10          4.9         3.1          1.5         0.1 setosa 
    ## # ... with 140 more rows
…
